{
    "KPlugin": {
        "Authors": [
            {
                "Email": "athantor@gmail.com",
                "Name": "Krzysztof Kundzicz",
                "Name[ca@valencia]": "Krzysztof Kundzicz",
                "Name[ca]": "Krzysztof Kundzicz",
                "Name[cs]": "Krzysztof Kundzicz",
                "Name[en_GB]": "Krzysztof Kundzicz",
                "Name[es]": "Krzysztof Kundzicz",
                "Name[fi]": "Krzysztof Kundzicz",
                "Name[fr]": "Krzysztof Kundzicz",
                "Name[hu]": "Krzysztof Kundzicz",
                "Name[ia]": "Krzysztof Kundzicz",
                "Name[it]": "Krzysztof Kundzicz",
                "Name[nl]": "Krzysztof Kundzicz",
                "Name[pl]": "Krzysztof Kundzicz",
                "Name[pt_BR]": "Krzysztof Kundzicz",
                "Name[sl]": "Krzysztof Kundzicz",
                "Name[sv]": "Krzysztof Kundzicz",
                "Name[uk]": "Krzysztof Kundzicz",
                "Name[x-test]": "xxKrzysztof Kundziczxx"
            }
        ],
        "Description": "Shows statistics about torrents in several graphs",
        "Description[ca@valencia]": "Mostra les estadístiques sobre els torrents en diverses gràfiques",
        "Description[ca]": "Mostra les estadístiques sobre els torrents en diverses gràfiques",
        "Description[cs]": "Zobrazení statistiky o torrentech v několika grafech",
        "Description[en_GB]": "Shows statistics about torrents in several graphs",
        "Description[es]": "Muestra estadísticas sobre torrents en varias gráficas",
        "Description[fi]": "Näyttää eri kaavioina torrenttitilastoja",
        "Description[fr]": "Affiche des statistiques sur les torrents dans plusieurs graphiques",
        "Description[hu]": "Statisztikák megjelenítése a torrentekről több grafikonon",
        "Description[ia]": "Monstra Statistica sur le torrentes in multe graphicos",
        "Description[it]": "Mostra le statistiche sui torrent in diversi grafici",
        "Description[nl]": "Geeft statistieken weer over torrents in verschillende grafieken",
        "Description[pl]": "Pokazuje statystyki torrentów w postaci szeregu wykresów",
        "Description[pt_BR]": "Mostra estatísticas sobre os torrents, em diversos gráficos",
        "Description[sl]": "Prikazuj statistiko torrentov v več grafih",
        "Description[sv]": "Visa statistik om dataflöden i flera diagram",
        "Description[uk]": "Показує статистику торентів за допомогою декількох графіків",
        "Description[x-test]": "xxShows statistics about torrents in several graphsxx",
        "EnabledByDefault": false,
        "Icon": "view-statistics",
        "Id": "StatsPlugin",
        "License": "GPL",
        "Name": "Statistics",
        "Name[ar]": "الإحصائيّات",
        "Name[ast]": "Estadístiques",
        "Name[bg]": "Статистики",
        "Name[bs]": "Statistike",
        "Name[ca@valencia]": "Estadístiques",
        "Name[ca]": "Estadístiques",
        "Name[cs]": "Statistiky",
        "Name[da]": "Statistik",
        "Name[de]": "Statistik",
        "Name[el]": "Στατιστικά",
        "Name[en_GB]": "Statistics",
        "Name[eo]": "Statistikoj",
        "Name[es]": "Estadísticas",
        "Name[et]": "Statistika",
        "Name[fi]": "Tilastot",
        "Name[fr]": "Statistiques",
        "Name[ga]": "Staitisticí",
        "Name[gl]": "Estatísticas",
        "Name[hr]": "Statistika",
        "Name[hu]": "Statisztikák",
        "Name[ia]": "Statistica",
        "Name[is]": "Tölfræði",
        "Name[it]": "Statistiche",
        "Name[ja]": "統計",
        "Name[kk]": "Статистика",
        "Name[km]": "ស្ថិតិ",
        "Name[ko]": "통계",
        "Name[lt]": "Statistika",
        "Name[lv]": "Statistika",
        "Name[mr]": "आकडेवारी",
        "Name[nb]": "Statistikk",
        "Name[nds]": "Statistik",
        "Name[nl]": "Statistieken",
        "Name[nn]": "Statistikk",
        "Name[pl]": "Statystyki",
        "Name[pt]": "Estatísticas",
        "Name[pt_BR]": "Estatísticas",
        "Name[ro]": "Statistici",
        "Name[ru]": "Статистика",
        "Name[si]": "තත්ව වාර්ථා",
        "Name[sk]": "Štatistika",
        "Name[sl]": "Statistika",
        "Name[sq]": "Statistikat",
        "Name[sr@ijekavian]": "Статистика",
        "Name[sr@ijekavianlatin]": "Statistika",
        "Name[sr@latin]": "Statistika",
        "Name[sr]": "Статистика",
        "Name[sv]": "Statistik",
        "Name[tr]": "İstatistik",
        "Name[ug]": "ستاتىستىكا",
        "Name[uk]": "Статистика",
        "Name[x-test]": "xxStatisticsxx",
        "Name[zh_CN]": "详情",
        "Name[zh_TW]": "統計",
        "Version": "0.1",
        "Website": "http://kde.org/applications/internet/ktorrent/"
    }
}
